%YAML 1.1
%TAG !u! tag:unity3d.com,2011:
--- !u!114 &11400000
MonoBehaviour:
  m_ObjectHideFlags: 0
  m_CorrespondingSourceObject: {fileID: 0}
  m_PrefabInstance: {fileID: 0}
  m_PrefabAsset: {fileID: 0}
  m_GameObject: {fileID: 0}
  m_Enabled: 1
  m_EditorHideFlags: 0
  m_Script: {fileID: 11500000, guid: 776fc3d071e8ba146a2d013c2c27ce62, type: 3}
  m_Name: StationPointF
  m_EditorClassIdentifier: 
  <StationIndex>k__BackingField: 6
  <StationColors>k__BackingField: 0100000004000000
  <Neighbors>k__BackingField:
  - {fileID: 11400000, guid: 311b95a3de5fb7244bb4ba6daa9f6fb0, type: 2}
  - {fileID: 11400000, guid: bc46ad0392ceee24b8466865ffc7000f, type: 2}
  - {fileID: 11400000, guid: 452afd79d464d814e96dded313c9b642, type: 2}
