%YAML 1.1
%TAG !u! tag:unity3d.com,2011:
--- !u!114 &11400000
MonoBehaviour:
  m_ObjectHideFlags: 0
  m_CorrespondingSourceObject: {fileID: 0}
  m_PrefabInstance: {fileID: 0}
  m_PrefabAsset: {fileID: 0}
  m_GameObject: {fileID: 0}
  m_Enabled: 1
  m_EditorHideFlags: 0
  m_Script: {fileID: 11500000, guid: 776fc3d071e8ba146a2d013c2c27ce62, type: 3}
  m_Name: StationPointG
  m_EditorClassIdentifier: 
  <StationIndex>k__BackingField: 7
  <StationColors>k__BackingField: 04000000
  <Neighbors>k__BackingField:
  - {fileID: 11400000, guid: 93f786aa2a5986844b73bd9f5d517c84, type: 2}
